…
The graph shows that the positive words most frequently used by the Presidents in their inauguration speeches include great, right, freedom, also relevant to the most used words shown in the previous wordclouds.

### Merging sentiment data with document data

``` r
st <- corpus_sentiments %>%
  count(President, sentiment, wt = count) %>%
  ungroup() %>%
  spread(sentiment, n, fill = 0) %>%
  mutate(sentiment = positive - negative) %>%
  arrange(sentiment)
st
```

    ## # A tibble: 40 × 4
    ##             President negative positive sentiment
    ##                 <chr>    <dbl>    <dbl>     <dbl>
    ## 1        JohnFKennedy       42       45         3
    ## 2      LyndonBJohnson       32       44        12
    ## 3   TheodoreRoosevelt       23       40        17
    ## 4      WarrenGHarding       89      113        24
    ## 5       ZacharyTaylor       15       40        25
    ## 6      AbrahamLincoln       89      120        31
    ## 7       AndrewJackson       48       80        32
    ## 8    GeorgeWashington       27       61        34
    ## 9  GroverCleveland-II       67      102        35
    ## 10      JamesGarfield       71      108        37
    ## # ... with 30 more rows
…
